%YAML 1.1
%TAG !u! tag:unity3d.com,2011:
--- !u!114 &11400000
MonoBehaviour:
  m_ObjectHideFlags: 0
  m_CorrespondingSourceObject: {fileID: 0}
  m_PrefabInstance: {fileID: 0}
  m_PrefabAsset: {fileID: 0}
  m_GameObject: {fileID: 0}
  m_Enabled: 1
  m_EditorHideFlags: 0
  m_Script: {fileID: 11500000, guid: 6007e765905daaf45807e6a0faec797a, type: 3}
  m_Name: FlagsPool
  m_EditorClassIdentifier: 
  _spritePool:
  - sprite: {fileID: 6356632054987546715, guid: 15399c5472a4ecd4d8139aab110ba9d9,
      type: 3}
    name: flags
    number: 0
  - sprite: {fileID: -7858788262442410435, guid: 15399c5472a4ecd4d8139aab110ba9d9,
      type: 3}
    name: flags
    number: 1
  - sprite: {fileID: 2474233907157199686, guid: 15399c5472a4ecd4d8139aab110ba9d9,
      type: 3}
    name: flags
    number: 2
  - sprite: {fileID: -7531011346372572665, guid: 15399c5472a4ecd4d8139aab110ba9d9,
      type: 3}
    name: flags
    number: 3
  - sprite: {fileID: 6089401747053245849, guid: 15399c5472a4ecd4d8139aab110ba9d9,
      type: 3}
    name: flags
    number: 4
  - sprite: {fileID: -4699548671627458655, guid: 15399c5472a4ecd4d8139aab110ba9d9,
      type: 3}
    name: flags
    number: 5
  - sprite: {fileID: -8207172110540127640, guid: 15399c5472a4ecd4d8139aab110ba9d9,
      type: 3}
    name: flags
    number: 6
  - sprite: {fileID: -6158020157603826145, guid: 15399c5472a4ecd4d8139aab110ba9d9,
      type: 3}
    name: flags
    number: 7
  - sprite: {fileID: -7449558140616503163, guid: 15399c5472a4ecd4d8139aab110ba9d9,
      type: 3}
    name: flags
    number: 8
  - sprite: {fileID: 5389815266756453789, guid: 15399c5472a4ecd4d8139aab110ba9d9,
      type: 3}
    name: flags
    number: 9
  - sprite: {fileID: 3454863560612208700, guid: 15399c5472a4ecd4d8139aab110ba9d9,
      type: 3}
    name: flags
    number: 10
  - sprite: {fileID: -24397455177556957, guid: 15399c5472a4ecd4d8139aab110ba9d9, type: 3}
    name: flags
    number: 11
  - sprite: {fileID: 4724920185416182895, guid: 15399c5472a4ecd4d8139aab110ba9d9,
      type: 3}
    name: flags
    number: 12
  - sprite: {fileID: -4497219208250069360, guid: 15399c5472a4ecd4d8139aab110ba9d9,
      type: 3}
    name: flags
    number: 13
  - sprite: {fileID: -7874707236043112937, guid: 15399c5472a4ecd4d8139aab110ba9d9,
      type: 3}
    name: flags
    number: 14
  - sprite: {fileID: 6655825503154312046, guid: 15399c5472a4ecd4d8139aab110ba9d9,
      type: 3}
    name: flags
    number: 15
  - sprite: {fileID: -7361853458126592370, guid: 15399c5472a4ecd4d8139aab110ba9d9,
      type: 3}
    name: flags
    number: 16
  - sprite: {fileID: 6588899061115312804, guid: 15399c5472a4ecd4d8139aab110ba9d9,
      type: 3}
    name: flags
    number: 17
  - sprite: {fileID: -2147595794686029052, guid: 15399c5472a4ecd4d8139aab110ba9d9,
      type: 3}
    name: flags
    number: 18
  - sprite: {fileID: -8922442547081164103, guid: 15399c5472a4ecd4d8139aab110ba9d9,
      type: 3}
    name: flags
    number: 19
  - sprite: {fileID: -4554576408038222455, guid: 15399c5472a4ecd4d8139aab110ba9d9,
      type: 3}
    name: flags
    number: 20
  - sprite: {fileID: 7393042475777428482, guid: 15399c5472a4ecd4d8139aab110ba9d9,
      type: 3}
    name: flags
    number: 21
  - sprite: {fileID: -7695515697378399550, guid: 15399c5472a4ecd4d8139aab110ba9d9,
      type: 3}
    name: flags
    number: 22
  - sprite: {fileID: -2306491969170580888, guid: 15399c5472a4ecd4d8139aab110ba9d9,
      type: 3}
    name: flags
    number: 23
  - sprite: {fileID: 3668135891607549795, guid: 15399c5472a4ecd4d8139aab110ba9d9,
      type: 3}
    name: flags
    number: 24
  - sprite: {fileID: 5646984602394355136, guid: 15399c5472a4ecd4d8139aab110ba9d9,
      type: 3}
    name: flags
    number: 25
  - sprite: {fileID: -4494078210489239333, guid: 15399c5472a4ecd4d8139aab110ba9d9,
      type: 3}
    name: flags
    number: 26
  - sprite: {fileID: 7189010284262455103, guid: 15399c5472a4ecd4d8139aab110ba9d9,
      type: 3}
    name: flags
    number: 27
  - sprite: {fileID: -8894397048519604518, guid: 15399c5472a4ecd4d8139aab110ba9d9,
      type: 3}
    name: flags
    number: 28
  - sprite: {fileID: -6585895705352524278, guid: 15399c5472a4ecd4d8139aab110ba9d9,
      type: 3}
    name: flags
    number: 29
  - sprite: {fileID: 6794855349798224907, guid: 15399c5472a4ecd4d8139aab110ba9d9,
      type: 3}
    name: flags
    number: 30
  - sprite: {fileID: -1799087927949898733, guid: 15399c5472a4ecd4d8139aab110ba9d9,
      type: 3}
    name: flags
    number: 31
  - sprite: {fileID: -8492789877152748203, guid: 15399c5472a4ecd4d8139aab110ba9d9,
      type: 3}
    name: flags
    number: 32
  - sprite: {fileID: 8276501077333401812, guid: 15399c5472a4ecd4d8139aab110ba9d9,
      type: 3}
    name: flags
    number: 33
  - sprite: {fileID: 425606431316738847, guid: 15399c5472a4ecd4d8139aab110ba9d9, type: 3}
    name: flags
    number: 34
  - sprite: {fileID: 5621905316733604243, guid: 15399c5472a4ecd4d8139aab110ba9d9,
      type: 3}
    name: flags
    number: 35
  - sprite: {fileID: 7071672765296450264, guid: 15399c5472a4ecd4d8139aab110ba9d9,
      type: 3}
    name: flags
    number: 36
  - sprite: {fileID: 3367720033600228390, guid: 15399c5472a4ecd4d8139aab110ba9d9,
      type: 3}
    name: flags
    number: 37
  - sprite: {fileID: -2233333942572294674, guid: 15399c5472a4ecd4d8139aab110ba9d9,
      type: 3}
    name: flags
    number: 38
  - sprite: {fileID: -5184793389213302692, guid: 15399c5472a4ecd4d8139aab110ba9d9,
      type: 3}
    name: flags
    number: 39
  - sprite: {fileID: 1636079794593939922, guid: 15399c5472a4ecd4d8139aab110ba9d9,
      type: 3}
    name: flags
    number: 40
  - sprite: {fileID: -7479983828299528232, guid: 15399c5472a4ecd4d8139aab110ba9d9,
      type: 3}
    name: flags
    number: 41
  - sprite: {fileID: 559088288415761826, guid: 15399c5472a4ecd4d8139aab110ba9d9, type: 3}
    name: flags
    number: 42
  - sprite: {fileID: -7487165496205910302, guid: 15399c5472a4ecd4d8139aab110ba9d9,
      type: 3}
    name: flags
    number: 43
  - sprite: {fileID: -3480478372722538965, guid: 15399c5472a4ecd4d8139aab110ba9d9,
      type: 3}
    name: flags
    number: 44
  - sprite: {fileID: -5618761564791455647, guid: 15399c5472a4ecd4d8139aab110ba9d9,
      type: 3}
    name: flags
    number: 45
  - sprite: {fileID: 6104087930742028725, guid: 15399c5472a4ecd4d8139aab110ba9d9,
      type: 3}
    name: flags
    number: 46
  - sprite: {fileID: -6821093901367492821, guid: 15399c5472a4ecd4d8139aab110ba9d9,
      type: 3}
    name: flags
    number: 47
  - sprite: {fileID: 3153881314392798685, guid: 15399c5472a4ecd4d8139aab110ba9d9,
      type: 3}
    name: flags
    number: 48
  - sprite: {fileID: -2665286579642972615, guid: 15399c5472a4ecd4d8139aab110ba9d9,
      type: 3}
    name: flags
    number: 49
  - sprite: {fileID: -727846183151749518, guid: 15399c5472a4ecd4d8139aab110ba9d9,
      type: 3}
    name: flags
    number: 50
  - sprite: {fileID: -6571908729268657802, guid: 15399c5472a4ecd4d8139aab110ba9d9,
      type: 3}
    name: flags
    number: 51
  - sprite: {fileID: 7175957134582688912, guid: 15399c5472a4ecd4d8139aab110ba9d9,
      type: 3}
    name: flags
    number: 52
  - sprite: {fileID: 8335147727796939151, guid: 15399c5472a4ecd4d8139aab110ba9d9,
      type: 3}
    name: flags
    number: 53
  - sprite: {fileID: -8399020594867033187, guid: 15399c5472a4ecd4d8139aab110ba9d9,
      type: 3}
    name: flags
    number: 54
  - sprite: {fileID: 3622289874165160362, guid: 15399c5472a4ecd4d8139aab110ba9d9,
      type: 3}
    name: flags
    number: 55
  - sprite: {fileID: 3286179214787729817, guid: 15399c5472a4ecd4d8139aab110ba9d9,
      type: 3}
    name: flags
    number: 56
  - sprite: {fileID: 1352526863484018281, guid: 15399c5472a4ecd4d8139aab110ba9d9,
      type: 3}
    name: flags
    number: 57
  - sprite: {fileID: -4696893002166865358, guid: 15399c5472a4ecd4d8139aab110ba9d9,
      type: 3}
    name: flags
    number: 58
  - sprite: {fileID: -3206118392768851034, guid: 15399c5472a4ecd4d8139aab110ba9d9,
      type: 3}
    name: flags
    number: 59
  - sprite: {fileID: -629485058511496246, guid: 15399c5472a4ecd4d8139aab110ba9d9,
      type: 3}
    name: flags
    number: 60
  - sprite: {fileID: -3048551959350673923, guid: 15399c5472a4ecd4d8139aab110ba9d9,
      type: 3}
    name: flags
    number: 61
  - sprite: {fileID: 8357996522693430431, guid: 15399c5472a4ecd4d8139aab110ba9d9,
      type: 3}
    name: flags
    number: 62
  - sprite: {fileID: -1870024723983952434, guid: 15399c5472a4ecd4d8139aab110ba9d9,
      type: 3}
    name: flags
    number: 63
  - sprite: {fileID: -6661450709394003097, guid: 15399c5472a4ecd4d8139aab110ba9d9,
      type: 3}
    name: flags
    number: 64
  - sprite: {fileID: -4907148248008091393, guid: 15399c5472a4ecd4d8139aab110ba9d9,
      type: 3}
    name: flags
    number: 65
  - sprite: {fileID: 1007894812358526312, guid: 15399c5472a4ecd4d8139aab110ba9d9,
      type: 3}
    name: flags
    number: 66
  - sprite: {fileID: 2284731157062752534, guid: 15399c5472a4ecd4d8139aab110ba9d9,
      type: 3}
    name: flags
    number: 67
  - sprite: {fileID: 3306531055802815767, guid: 15399c5472a4ecd4d8139aab110ba9d9,
      type: 3}
    name: flags
    number: 68
  - sprite: {fileID: 6290517582177538555, guid: 15399c5472a4ecd4d8139aab110ba9d9,
      type: 3}
    name: flags
    number: 69
  - sprite: {fileID: 5725020968631458962, guid: 15399c5472a4ecd4d8139aab110ba9d9,
      type: 3}
    name: flags
    number: 70
  - sprite: {fileID: 5778258912381255963, guid: 15399c5472a4ecd4d8139aab110ba9d9,
      type: 3}
    name: flags
    number: 71
  - sprite: {fileID: -3392628488881072221, guid: 15399c5472a4ecd4d8139aab110ba9d9,
      type: 3}
    name: flags
    number: 72
  - sprite: {fileID: -4258597129608949622, guid: 15399c5472a4ecd4d8139aab110ba9d9,
      type: 3}
    name: flags
    number: 73
  - sprite: {fileID: -7657838793123029674, guid: 15399c5472a4ecd4d8139aab110ba9d9,
      type: 3}
    name: flags
    number: 74
  - sprite: {fileID: 2960921422365609374, guid: 15399c5472a4ecd4d8139aab110ba9d9,
      type: 3}
    name: flags
    number: 75
  - sprite: {fileID: 4395664190756336213, guid: 15399c5472a4ecd4d8139aab110ba9d9,
      type: 3}
    name: flags
    number: 76
  - sprite: {fileID: 903428787970029288, guid: 15399c5472a4ecd4d8139aab110ba9d9, type: 3}
    name: flags
    number: 77
  - sprite: {fileID: -7540365037588778164, guid: 15399c5472a4ecd4d8139aab110ba9d9,
      type: 3}
    name: flags
    number: 78
  - sprite: {fileID: 951233850440590702, guid: 15399c5472a4ecd4d8139aab110ba9d9, type: 3}
    name: flags
    number: 79
  - sprite: {fileID: -7054498650482024839, guid: 15399c5472a4ecd4d8139aab110ba9d9,
      type: 3}
    name: flags
    number: 80
  - sprite: {fileID: -7094566500230484297, guid: 15399c5472a4ecd4d8139aab110ba9d9,
      type: 3}
    name: flags
    number: 81
  - sprite: {fileID: -1283374946098724772, guid: 15399c5472a4ecd4d8139aab110ba9d9,
      type: 3}
    name: flags
    number: 82
  - sprite: {fileID: 2794547928414477897, guid: 15399c5472a4ecd4d8139aab110ba9d9,
      type: 3}
    name: flags
    number: 83
  - sprite: {fileID: 1536952737010030337, guid: 15399c5472a4ecd4d8139aab110ba9d9,
      type: 3}
    name: flags
    number: 84
  - sprite: {fileID: 5994055610866607253, guid: 15399c5472a4ecd4d8139aab110ba9d9,
      type: 3}
    name: flags
    number: 85
  - sprite: {fileID: -8991321237086217962, guid: 15399c5472a4ecd4d8139aab110ba9d9,
      type: 3}
    name: flags
    number: 86
  - sprite: {fileID: -8018320793860325891, guid: 15399c5472a4ecd4d8139aab110ba9d9,
      type: 3}
    name: flags
    number: 87
  - sprite: {fileID: 6345597040063808660, guid: 15399c5472a4ecd4d8139aab110ba9d9,
      type: 3}
    name: flags
    number: 88
  - sprite: {fileID: 1026274781738490830, guid: 15399c5472a4ecd4d8139aab110ba9d9,
      type: 3}
    name: flags
    number: 89
  - sprite: {fileID: 7458544527197114810, guid: 15399c5472a4ecd4d8139aab110ba9d9,
      type: 3}
    name: flags
    number: 90
  - sprite: {fileID: 2854392228659844010, guid: 15399c5472a4ecd4d8139aab110ba9d9,
      type: 3}
    name: flags
    number: 91
  - sprite: {fileID: -6524737406145210, guid: 15399c5472a4ecd4d8139aab110ba9d9, type: 3}
    name: flags
    number: 92
  - sprite: {fileID: 4351722402589856263, guid: 15399c5472a4ecd4d8139aab110ba9d9,
      type: 3}
    name: flags
    number: 93
  - sprite: {fileID: -1372446843309774241, guid: 15399c5472a4ecd4d8139aab110ba9d9,
      type: 3}
    name: flags
    number: 94
  - sprite: {fileID: -3272286036665356133, guid: 15399c5472a4ecd4d8139aab110ba9d9,
      type: 3}
    name: flags
    number: 95
  - sprite: {fileID: -2580390944919225545, guid: 15399c5472a4ecd4d8139aab110ba9d9,
      type: 3}
    name: flags
    number: 96
  - sprite: {fileID: -3042859220761561053, guid: 15399c5472a4ecd4d8139aab110ba9d9,
      type: 3}
    name: flags
    number: 97
  - sprite: {fileID: 2854505038415263272, guid: 15399c5472a4ecd4d8139aab110ba9d9,
      type: 3}
    name: flags
    number: 98
  - sprite: {fileID: 4808644443703976487, guid: 15399c5472a4ecd4d8139aab110ba9d9,
      type: 3}
    name: flags
    number: 99
  - sprite: {fileID: 5214054775286355005, guid: 15399c5472a4ecd4d8139aab110ba9d9,
      type: 3}
    name: flags
    number: 100
  - sprite: {fileID: -3068563208043653552, guid: 15399c5472a4ecd4d8139aab110ba9d9,
      type: 3}
    name: flags
    number: 101
  - sprite: {fileID: 3979199285454671038, guid: 15399c5472a4ecd4d8139aab110ba9d9,
      type: 3}
    name: flags
    number: 102
  - sprite: {fileID: 7699340753581843754, guid: 15399c5472a4ecd4d8139aab110ba9d9,
      type: 3}
    name: flags
    number: 103
  - sprite: {fileID: -6439159026324817837, guid: 15399c5472a4ecd4d8139aab110ba9d9,
      type: 3}
    name: flags
    number: 104
  - sprite: {fileID: -904950972945668072, guid: 15399c5472a4ecd4d8139aab110ba9d9,
      type: 3}
    name: flags
    number: 105
  - sprite: {fileID: 1683128038081544101, guid: 15399c5472a4ecd4d8139aab110ba9d9,
      type: 3}
    name: flags
    number: 106
  - sprite: {fileID: 8931894742421214734, guid: 15399c5472a4ecd4d8139aab110ba9d9,
      type: 3}
    name: flags
    number: 107
  - sprite: {fileID: 5116182585655139767, guid: 15399c5472a4ecd4d8139aab110ba9d9,
      type: 3}
    name: flags
    number: 108
  - sprite: {fileID: 7972562378988126641, guid: 15399c5472a4ecd4d8139aab110ba9d9,
      type: 3}
    name: flags
    number: 109
  - sprite: {fileID: -2379542584429925463, guid: 15399c5472a4ecd4d8139aab110ba9d9,
      type: 3}
    name: flags
    number: 110
  - sprite: {fileID: -6284508043650309279, guid: 15399c5472a4ecd4d8139aab110ba9d9,
      type: 3}
    name: flags
    number: 111
  - sprite: {fileID: -5130433989601384037, guid: 15399c5472a4ecd4d8139aab110ba9d9,
      type: 3}
    name: flags
    number: 112
  - sprite: {fileID: -3118924531549736830, guid: 15399c5472a4ecd4d8139aab110ba9d9,
      type: 3}
    name: flags
    number: 113
  - sprite: {fileID: 287686136719816707, guid: 15399c5472a4ecd4d8139aab110ba9d9, type: 3}
    name: flags
    number: 114
  - sprite: {fileID: -4526935280695963536, guid: 15399c5472a4ecd4d8139aab110ba9d9,
      type: 3}
    name: flags
    number: 115
  - sprite: {fileID: -3821098470418769631, guid: 15399c5472a4ecd4d8139aab110ba9d9,
      type: 3}
    name: flags
    number: 116
  - sprite: {fileID: -5893887318276377426, guid: 15399c5472a4ecd4d8139aab110ba9d9,
      type: 3}
    name: flags
    number: 117
  - sprite: {fileID: -1501321298591228378, guid: 15399c5472a4ecd4d8139aab110ba9d9,
      type: 3}
    name: flags
    number: 118
  - sprite: {fileID: 6251655784579162358, guid: 15399c5472a4ecd4d8139aab110ba9d9,
      type: 3}
    name: flags
    number: 119
  - sprite: {fileID: 1436842198725784764, guid: 15399c5472a4ecd4d8139aab110ba9d9,
      type: 3}
    name: flags
    number: 120
  - sprite: {fileID: -8949533729573484440, guid: 15399c5472a4ecd4d8139aab110ba9d9,
      type: 3}
    name: flags
    number: 121
  - sprite: {fileID: 6213601407776085875, guid: 15399c5472a4ecd4d8139aab110ba9d9,
      type: 3}
    name: flags
    number: 122
  - sprite: {fileID: 3732516844647484650, guid: 15399c5472a4ecd4d8139aab110ba9d9,
      type: 3}
    name: flags
    number: 123
  - sprite: {fileID: -1766807829827970464, guid: 15399c5472a4ecd4d8139aab110ba9d9,
      type: 3}
    name: flags
    number: 124
  - sprite: {fileID: -2816970214424306187, guid: 15399c5472a4ecd4d8139aab110ba9d9,
      type: 3}
    name: flags
    number: 125
  - sprite: {fileID: 9017000586889282976, guid: 15399c5472a4ecd4d8139aab110ba9d9,
      type: 3}
    name: flags
    number: 126
  - sprite: {fileID: 4710876844846310006, guid: 15399c5472a4ecd4d8139aab110ba9d9,
      type: 3}
    name: flags
    number: 127
  - sprite: {fileID: 8551417749915903446, guid: 15399c5472a4ecd4d8139aab110ba9d9,
      type: 3}
    name: flags
    number: 128
  - sprite: {fileID: -2327955022703910136, guid: 15399c5472a4ecd4d8139aab110ba9d9,
      type: 3}
    name: flags
    number: 129
  - sprite: {fileID: -4331227199381380247, guid: 15399c5472a4ecd4d8139aab110ba9d9,
      type: 3}
    name: flags
    number: 130
  - sprite: {fileID: -2528713832242906397, guid: 15399c5472a4ecd4d8139aab110ba9d9,
      type: 3}
    name: flags
    number: 131
  - sprite: {fileID: -4464431248894701948, guid: 15399c5472a4ecd4d8139aab110ba9d9,
      type: 3}
    name: flags
    number: 132
  - sprite: {fileID: 6434316787383479085, guid: 15399c5472a4ecd4d8139aab110ba9d9,
      type: 3}
    name: flags
    number: 133
  - sprite: {fileID: -535777021516171925, guid: 15399c5472a4ecd4d8139aab110ba9d9,
      type: 3}
    name: flags
    number: 134
  - sprite: {fileID: 4445513616149559558, guid: 15399c5472a4ecd4d8139aab110ba9d9,
      type: 3}
    name: flags
    number: 135
  - sprite: {fileID: -3067393555933801388, guid: 15399c5472a4ecd4d8139aab110ba9d9,
      type: 3}
    name: flags
    number: 136
  - sprite: {fileID: -6268710097470057004, guid: 15399c5472a4ecd4d8139aab110ba9d9,
      type: 3}
    name: flags
    number: 137
  - sprite: {fileID: -2053724123621231323, guid: 15399c5472a4ecd4d8139aab110ba9d9,
      type: 3}
    name: flags
    number: 138
  - sprite: {fileID: -1166291539968145288, guid: 15399c5472a4ecd4d8139aab110ba9d9,
      type: 3}
    name: flags
    number: 139
  - sprite: {fileID: -1187001727926803680, guid: 15399c5472a4ecd4d8139aab110ba9d9,
      type: 3}
    name: flags
    number: 140
  - sprite: {fileID: -5655242744784376698, guid: 15399c5472a4ecd4d8139aab110ba9d9,
      type: 3}
    name: flags
    number: 141
  - sprite: {fileID: 953045886538078931, guid: 15399c5472a4ecd4d8139aab110ba9d9, type: 3}
    name: flags
    number: 142
  - sprite: {fileID: -6001786998712357237, guid: 15399c5472a4ecd4d8139aab110ba9d9,
      type: 3}
    name: flags
    number: 143
  - sprite: {fileID: 2847488668898487911, guid: 15399c5472a4ecd4d8139aab110ba9d9,
      type: 3}
    name: flags
    number: 144
  - sprite: {fileID: -2737974229387144310, guid: 15399c5472a4ecd4d8139aab110ba9d9,
      type: 3}
    name: flags
    number: 145
  - sprite: {fileID: 2690013434575447570, guid: 15399c5472a4ecd4d8139aab110ba9d9,
      type: 3}
    name: flags
    number: 146
  - sprite: {fileID: 1362643337472160344, guid: 15399c5472a4ecd4d8139aab110ba9d9,
      type: 3}
    name: flags
    number: 147
  - sprite: {fileID: 8928982971589527064, guid: 15399c5472a4ecd4d8139aab110ba9d9,
      type: 3}
    name: flags
    number: 148
  - sprite: {fileID: -8930934491322275607, guid: 15399c5472a4ecd4d8139aab110ba9d9,
      type: 3}
    name: flags
    number: 149
  - sprite: {fileID: 7542482095141117632, guid: 15399c5472a4ecd4d8139aab110ba9d9,
      type: 3}
    name: flags
    number: 150
  - sprite: {fileID: -5158112469021017117, guid: 15399c5472a4ecd4d8139aab110ba9d9,
      type: 3}
    name: flags
    number: 151
  - sprite: {fileID: -3356735377224421075, guid: 15399c5472a4ecd4d8139aab110ba9d9,
      type: 3}
    name: flags
    number: 152
  - sprite: {fileID: 4143844819570156518, guid: 15399c5472a4ecd4d8139aab110ba9d9,
      type: 3}
    name: flags
    number: 153
  - sprite: {fileID: -8310135373356293450, guid: 15399c5472a4ecd4d8139aab110ba9d9,
      type: 3}
    name: flags
    number: 154
  - sprite: {fileID: -4475382615697342282, guid: 15399c5472a4ecd4d8139aab110ba9d9,
      type: 3}
    name: flags
    number: 155
  - sprite: {fileID: -7011101373377587395, guid: 15399c5472a4ecd4d8139aab110ba9d9,
      type: 3}
    name: flags
    number: 156
  - sprite: {fileID: -4616007240679823388, guid: 15399c5472a4ecd4d8139aab110ba9d9,
      type: 3}
    name: flags
    number: 157
  - sprite: {fileID: 6635826961996715094, guid: 15399c5472a4ecd4d8139aab110ba9d9,
      type: 3}
    name: flags
    number: 158
  - sprite: {fileID: -8800608005871635261, guid: 15399c5472a4ecd4d8139aab110ba9d9,
      type: 3}
    name: flags
    number: 159
  - sprite: {fileID: -6814321342002168164, guid: 15399c5472a4ecd4d8139aab110ba9d9,
      type: 3}
    name: flags
    number: 160
  - sprite: {fileID: -7410651121220459872, guid: 15399c5472a4ecd4d8139aab110ba9d9,
      type: 3}
    name: flags
    number: 161
  - sprite: {fileID: 6253878467296114865, guid: 15399c5472a4ecd4d8139aab110ba9d9,
      type: 3}
    name: flags
    number: 162
  - sprite: {fileID: -7797846947419882535, guid: 15399c5472a4ecd4d8139aab110ba9d9,
      type: 3}
    name: flags
    number: 163
  - sprite: {fileID: 3248359719059151511, guid: 15399c5472a4ecd4d8139aab110ba9d9,
      type: 3}
    name: flags
    number: 164
  - sprite: {fileID: 3389398166354040436, guid: 15399c5472a4ecd4d8139aab110ba9d9,
      type: 3}
    name: flags
    number: 165
  - sprite: {fileID: -420872453330597125, guid: 15399c5472a4ecd4d8139aab110ba9d9,
      type: 3}
    name: flags
    number: 166
  - sprite: {fileID: -4776570208958832730, guid: 15399c5472a4ecd4d8139aab110ba9d9,
      type: 3}
    name: flags
    number: 167
  - sprite: {fileID: -3717830715916965749, guid: 15399c5472a4ecd4d8139aab110ba9d9,
      type: 3}
    name: flags
    number: 168
  - sprite: {fileID: -5347623295709392418, guid: 15399c5472a4ecd4d8139aab110ba9d9,
      type: 3}
    name: flags
    number: 169
  - sprite: {fileID: 8889802930535634048, guid: 15399c5472a4ecd4d8139aab110ba9d9,
      type: 3}
    name: flags
    number: 170
  - sprite: {fileID: 4160469952258585876, guid: 15399c5472a4ecd4d8139aab110ba9d9,
      type: 3}
    name: flags
    number: 171
  - sprite: {fileID: -1333237779371382671, guid: 15399c5472a4ecd4d8139aab110ba9d9,
      type: 3}
    name: flags
    number: 172
  - sprite: {fileID: 8654217605289005571, guid: 15399c5472a4ecd4d8139aab110ba9d9,
      type: 3}
    name: flags
    number: 173
  - sprite: {fileID: 4840878876754627768, guid: 15399c5472a4ecd4d8139aab110ba9d9,
      type: 3}
    name: flags
    number: 174
  - sprite: {fileID: 1285503893091017823, guid: 15399c5472a4ecd4d8139aab110ba9d9,
      type: 3}
    name: flags
    number: 175
  - sprite: {fileID: -4267275093293880764, guid: 15399c5472a4ecd4d8139aab110ba9d9,
      type: 3}
    name: flags
    number: 176
  - sprite: {fileID: 3118610276312862067, guid: 15399c5472a4ecd4d8139aab110ba9d9,
      type: 3}
    name: flags
    number: 177
  - sprite: {fileID: 6659075626908168359, guid: 15399c5472a4ecd4d8139aab110ba9d9,
      type: 3}
    name: flags
    number: 178
  - sprite: {fileID: 3915593801626819324, guid: 15399c5472a4ecd4d8139aab110ba9d9,
      type: 3}
    name: flags
    number: 179
  - sprite: {fileID: -7675115471679925332, guid: 15399c5472a4ecd4d8139aab110ba9d9,
      type: 3}
    name: flags
    number: 180
  - sprite: {fileID: 2453829309933102789, guid: 15399c5472a4ecd4d8139aab110ba9d9,
      type: 3}
    name: flags
    number: 181
  - sprite: {fileID: 7476403110089659141, guid: 15399c5472a4ecd4d8139aab110ba9d9,
      type: 3}
    name: flags
    number: 182
  - sprite: {fileID: -3798911812555464643, guid: 15399c5472a4ecd4d8139aab110ba9d9,
      type: 3}
    name: flags
    number: 183
  - sprite: {fileID: 1553216759792377603, guid: 15399c5472a4ecd4d8139aab110ba9d9,
      type: 3}
    name: flags
    number: 184
  - sprite: {fileID: 2960273573532229404, guid: 15399c5472a4ecd4d8139aab110ba9d9,
      type: 3}
    name: flags
    number: 185
  - sprite: {fileID: -7640224701666806220, guid: 15399c5472a4ecd4d8139aab110ba9d9,
      type: 3}
    name: flags
    number: 186
  - sprite: {fileID: -1092887540824571319, guid: 15399c5472a4ecd4d8139aab110ba9d9,
      type: 3}
    name: flags
    number: 187
  - sprite: {fileID: 7671546328183069363, guid: 15399c5472a4ecd4d8139aab110ba9d9,
      type: 3}
    name: flags
    number: 188
  - sprite: {fileID: 2690018136517090645, guid: 15399c5472a4ecd4d8139aab110ba9d9,
      type: 3}
    name: flags
    number: 189
  - sprite: {fileID: -827441866914950659, guid: 15399c5472a4ecd4d8139aab110ba9d9,
      type: 3}
    name: flags
    number: 190
  - sprite: {fileID: -8035796650765791521, guid: 15399c5472a4ecd4d8139aab110ba9d9,
      type: 3}
    name: flags
    number: 191
  - sprite: {fileID: 3796476069043022621, guid: 15399c5472a4ecd4d8139aab110ba9d9,
      type: 3}
    name: flags
    number: 192
  - sprite: {fileID: 205035338488465804, guid: 15399c5472a4ecd4d8139aab110ba9d9, type: 3}
    name: flags
    number: 193
  - sprite: {fileID: -1197663113547569429, guid: 15399c5472a4ecd4d8139aab110ba9d9,
      type: 3}
    name: flags
    number: 194
  - sprite: {fileID: -7224791119820674881, guid: 15399c5472a4ecd4d8139aab110ba9d9,
      type: 3}
    name: flags
    number: 195
  - sprite: {fileID: 350472165980307426, guid: 15399c5472a4ecd4d8139aab110ba9d9, type: 3}
    name: flags
    number: 196
  - sprite: {fileID: 5611536163056772860, guid: 15399c5472a4ecd4d8139aab110ba9d9,
      type: 3}
    name: flags
    number: 197
  - sprite: {fileID: -2350728089824701236, guid: 15399c5472a4ecd4d8139aab110ba9d9,
      type: 3}
    name: flags
    number: 198
  - sprite: {fileID: -1448894656803781635, guid: 15399c5472a4ecd4d8139aab110ba9d9,
      type: 3}
    name: flags
    number: 199
  - sprite: {fileID: -472442118551706083, guid: 15399c5472a4ecd4d8139aab110ba9d9,
      type: 3}
    name: flags
    number: 200
  - sprite: {fileID: 5414697707119201394, guid: 15399c5472a4ecd4d8139aab110ba9d9,
      type: 3}
    name: flags
    number: 201
  - sprite: {fileID: 6318992507046242651, guid: 15399c5472a4ecd4d8139aab110ba9d9,
      type: 3}
    name: flags
    number: 202
  - sprite: {fileID: 7479115998982445284, guid: 15399c5472a4ecd4d8139aab110ba9d9,
      type: 3}
    name: flags
    number: 203
  - sprite: {fileID: -9148143087085692022, guid: 15399c5472a4ecd4d8139aab110ba9d9,
      type: 3}
    name: flags
    number: 204
  - sprite: {fileID: -1109145561207974100, guid: 15399c5472a4ecd4d8139aab110ba9d9,
      type: 3}
    name: flags
    number: 205
  - sprite: {fileID: -2132999952407664314, guid: 15399c5472a4ecd4d8139aab110ba9d9,
      type: 3}
    name: flags
    number: 206
  - sprite: {fileID: 1860649881596882768, guid: 15399c5472a4ecd4d8139aab110ba9d9,
      type: 3}
    name: flags
    number: 207
  - sprite: {fileID: 1186887643519224040, guid: 15399c5472a4ecd4d8139aab110ba9d9,
      type: 3}
    name: flags
    number: 208
  - sprite: {fileID: -8079514104292462101, guid: 15399c5472a4ecd4d8139aab110ba9d9,
      type: 3}
    name: flags
    number: 209
  - sprite: {fileID: -5169425713837283124, guid: 15399c5472a4ecd4d8139aab110ba9d9,
      type: 3}
    name: flags
    number: 210
  - sprite: {fileID: -2445413847787095179, guid: 15399c5472a4ecd4d8139aab110ba9d9,
      type: 3}
    name: flags
    number: 211
  - sprite: {fileID: 3613058878426405655, guid: 15399c5472a4ecd4d8139aab110ba9d9,
      type: 3}
    name: flags
    number: 212
  - sprite: {fileID: 6619286916466245825, guid: 15399c5472a4ecd4d8139aab110ba9d9,
      type: 3}
    name: flags
    number: 213
  - sprite: {fileID: 6970318335776591198, guid: 15399c5472a4ecd4d8139aab110ba9d9,
      type: 3}
    name: flags
    number: 214
  - sprite: {fileID: -3495181723767851434, guid: 15399c5472a4ecd4d8139aab110ba9d9,
      type: 3}
    name: flags
    number: 215
  - sprite: {fileID: -1262121359576680859, guid: 15399c5472a4ecd4d8139aab110ba9d9,
      type: 3}
    name: flags
    number: 216
  - sprite: {fileID: 3392769846855893027, guid: 15399c5472a4ecd4d8139aab110ba9d9,
      type: 3}
    name: flags
    number: 217
  - sprite: {fileID: 340508785853338266, guid: 15399c5472a4ecd4d8139aab110ba9d9, type: 3}
    name: flags
    number: 218
  - sprite: {fileID: -1125687268519298939, guid: 15399c5472a4ecd4d8139aab110ba9d9,
      type: 3}
    name: flags
    number: 219
  - sprite: {fileID: -3604188419753687858, guid: 15399c5472a4ecd4d8139aab110ba9d9,
      type: 3}
    name: flags
    number: 220
  - sprite: {fileID: -5148112051236688590, guid: 15399c5472a4ecd4d8139aab110ba9d9,
      type: 3}
    name: flags
    number: 221
  - sprite: {fileID: -7333062931745338957, guid: 15399c5472a4ecd4d8139aab110ba9d9,
      type: 3}
    name: flags
    number: 222
  - sprite: {fileID: 8016706351447252497, guid: 15399c5472a4ecd4d8139aab110ba9d9,
      type: 3}
    name: flags
    number: 223
  - sprite: {fileID: 5743685814352564923, guid: 15399c5472a4ecd4d8139aab110ba9d9,
      type: 3}
    name: flags
    number: 224
  - sprite: {fileID: -4027599739124515227, guid: 15399c5472a4ecd4d8139aab110ba9d9,
      type: 3}
    name: flags
    number: 225
  - sprite: {fileID: -5257572352797467623, guid: 15399c5472a4ecd4d8139aab110ba9d9,
      type: 3}
    name: flags
    number: 226
  - sprite: {fileID: 1053889958033242037, guid: 15399c5472a4ecd4d8139aab110ba9d9,
      type: 3}
    name: flags
    number: 227
  - sprite: {fileID: 1890709385275919991, guid: 15399c5472a4ecd4d8139aab110ba9d9,
      type: 3}
    name: flags
    number: 228
  - sprite: {fileID: 2464217487108122708, guid: 15399c5472a4ecd4d8139aab110ba9d9,
      type: 3}
    name: flags
    number: 229
  - sprite: {fileID: -5996399982506028314, guid: 15399c5472a4ecd4d8139aab110ba9d9,
      type: 3}
    name: flags
    number: 230
  - sprite: {fileID: 2651390011373598925, guid: 15399c5472a4ecd4d8139aab110ba9d9,
      type: 3}
    name: flags
    number: 231
  - sprite: {fileID: -2498044008622317380, guid: 15399c5472a4ecd4d8139aab110ba9d9,
      type: 3}
    name: flags
    number: 232
  - sprite: {fileID: 8366325579799335135, guid: 15399c5472a4ecd4d8139aab110ba9d9,
      type: 3}
    name: flags
    number: 233
  _source: {fileID: 2800000, guid: 15399c5472a4ecd4d8139aab110ba9d9, type: 3}
